(module MAX3243ECPWR (layer F.Cu)
  (fp_text reference REF** (at 0 0) (layer F.SilkS)
    (effects (font (size 1 1) (thickness .15)))
  )
  (fp_text value PW28 (at 0 0) (layer F.SilkS)
    (effects (font (size 1 1) (thickness .15)))
  )
  (fp_text user "Copyright 2016 Accelerated Designs. All rights reserved." (at 0 0) (layer Cmts.User)
    (effects (font (size .127 .127) (thickness .002)))
  )
  (fp_text user "*" (at -1.8669 -4.826) (layer F.SilkS)
    (effects (font (size 1 1) (thickness .15)))
  )
  (fp_text user "*" (at -1.8669 -4.826) (layer F.Fab)
    (effects (font (size 1 1) (thickness .15)))
  )
  (fp_text user "0.026in/0.65mm" (at -5.8674 -3.9) (layer Dwgs.User)
    (effects (font (size 1 1) (thickness .15)))
  )
  (fp_text user "0.014in/0.356mm" (at 5.8674 -4.225) (layer Dwgs.User)
    (effects (font (size 1 1) (thickness .15)))
  )
  (fp_text user "0.222in/5.639mm" (at 0 -7.3152) (layer Dwgs.User)
    (effects (font (size 1 1) (thickness .15)))
  )
  (fp_text user "0.066in/1.676mm" (at -2.8194 7.3152) (layer Dwgs.User)
    (effects (font (size 1 1) (thickness .15)))
  )
  (fp_text user "*" (at -1.8669 -4.826) (layer F.Fab)
    (effects (font (size 1 1) (thickness .15)))
  )
  (fp_text user "*" (at -1.8669 -4.826) (layer F.SilkS)
    (effects (font (size 1 1) (thickness .15)))
  )
  (fp_line (start -2.2479 -4.0726) (end -2.2479 -4.3774) (layer F.Fab) (width .1524))
  (fp_line (start -2.2479 -4.3774) (end -3.302 -4.3774) (layer F.Fab) (width .1524))
  (fp_line (start -3.302 -4.3774) (end -3.302 -4.0726) (layer F.Fab) (width .1524))
  (fp_line (start -3.302 -4.0726) (end -2.2479 -4.0726) (layer F.Fab) (width .1524))
  (fp_line (start -2.2479 -3.4226) (end -2.2479 -3.7274) (layer F.Fab) (width .1524))
  (fp_line (start -2.2479 -3.7274) (end -3.302 -3.7274) (layer F.Fab) (width .1524))
  (fp_line (start -3.302 -3.7274) (end -3.302 -3.4226) (layer F.Fab) (width .1524))
  (fp_line (start -3.302 -3.4226) (end -2.2479 -3.4226) (layer F.Fab) (width .1524))
  (fp_line (start -2.2479 -2.7726) (end -2.2479 -3.0774) (layer F.Fab) (width .1524))
  (fp_line (start -2.2479 -3.0774) (end -3.302 -3.0774) (layer F.Fab) (width .1524))
  (fp_line (start -3.302 -3.0774) (end -3.302 -2.7726) (layer F.Fab) (width .1524))
  (fp_line (start -3.302 -2.7726) (end -2.2479 -2.7726) (layer F.Fab) (width .1524))
  (fp_line (start -2.2479 -2.1226) (end -2.2479 -2.4274) (layer F.Fab) (width .1524))
  (fp_line (start -2.2479 -2.4274) (end -3.302 -2.4274) (layer F.Fab) (width .1524))
  (fp_line (start -3.302 -2.4274) (end -3.302 -2.1226) (layer F.Fab) (width .1524))
  (fp_line (start -3.302 -2.1226) (end -2.2479 -2.1226) (layer F.Fab) (width .1524))
  (fp_line (start -2.2479 -1.472601) (end -2.2479 -1.777401) (layer F.Fab) (width .1524))
  (fp_line (start -2.2479 -1.777401) (end -3.302 -1.777401) (layer F.Fab) (width .1524))
  (fp_line (start -3.302 -1.777401) (end -3.302 -1.472601) (layer F.Fab) (width .1524))
  (fp_line (start -3.302 -1.472601) (end -2.2479 -1.472601) (layer F.Fab) (width .1524))
  (fp_line (start -2.2479 -.822601) (end -2.2479 -1.127401) (layer F.Fab) (width .1524))
  (fp_line (start -2.2479 -1.127401) (end -3.302 -1.127401) (layer F.Fab) (width .1524))
  (fp_line (start -3.302 -1.127401) (end -3.302 -.822601) (layer F.Fab) (width .1524))
  (fp_line (start -3.302 -.822601) (end -2.2479 -.822601) (layer F.Fab) (width .1524))
  (fp_line (start -2.2479 -.172601) (end -2.2479 -.477401) (layer F.Fab) (width .1524))
  (fp_line (start -2.2479 -.477401) (end -3.302 -.477401) (layer F.Fab) (width .1524))
  (fp_line (start -3.302 -.477401) (end -3.302 -.172601) (layer F.Fab) (width .1524))
  (fp_line (start -3.302 -.172601) (end -2.2479 -.172601) (layer F.Fab) (width .1524))
  (fp_line (start -2.2479 .477399) (end -2.2479 .172599) (layer F.Fab) (width .1524))
  (fp_line (start -2.2479 .172599) (end -3.302 .172599) (layer F.Fab) (width .1524))
  (fp_line (start -3.302 .172599) (end -3.302 .477399) (layer F.Fab) (width .1524))
  (fp_line (start -3.302 .477399) (end -2.2479 .477399) (layer F.Fab) (width .1524))
  (fp_line (start -2.2479 1.127399) (end -2.2479 .822599) (layer F.Fab) (width .1524))
  (fp_line (start -2.2479 .822599) (end -3.302 .822599) (layer F.Fab) (width .1524))
  (fp_line (start -3.302 .822599) (end -3.302 1.127399) (layer F.Fab) (width .1524))
  (fp_line (start -3.302 1.127399) (end -2.2479 1.127399) (layer F.Fab) (width .1524))
  (fp_line (start -2.2479 1.777399) (end -2.2479 1.472599) (layer F.Fab) (width .1524))
  (fp_line (start -2.2479 1.472599) (end -3.302 1.472599) (layer F.Fab) (width .1524))
  (fp_line (start -3.302 1.472599) (end -3.302 1.777399) (layer F.Fab) (width .1524))
  (fp_line (start -3.302 1.777399) (end -2.2479 1.777399) (layer F.Fab) (width .1524))
  (fp_line (start -2.2479 2.427399) (end -2.2479 2.122599) (layer F.Fab) (width .1524))
  (fp_line (start -2.2479 2.122599) (end -3.302 2.122599) (layer F.Fab) (width .1524))
  (fp_line (start -3.302 2.122599) (end -3.302 2.427399) (layer F.Fab) (width .1524))
  (fp_line (start -3.302 2.427399) (end -2.2479 2.427399) (layer F.Fab) (width .1524))
  (fp_line (start -2.2479 3.077399) (end -2.2479 2.772599) (layer F.Fab) (width .1524))
  (fp_line (start -2.2479 2.772599) (end -3.302 2.772599) (layer F.Fab) (width .1524))
  (fp_line (start -3.302 2.772599) (end -3.302 3.077399) (layer F.Fab) (width .1524))
  (fp_line (start -3.302 3.077399) (end -2.2479 3.077399) (layer F.Fab) (width .1524))
  (fp_line (start -2.2479 3.727399) (end -2.2479 3.422599) (layer F.Fab) (width .1524))
  (fp_line (start -2.2479 3.422599) (end -3.302 3.422599) (layer F.Fab) (width .1524))
  (fp_line (start -3.302 3.422599) (end -3.302 3.727399) (layer F.Fab) (width .1524))
  (fp_line (start -3.302 3.727399) (end -2.2479 3.727399) (layer F.Fab) (width .1524))
  (fp_line (start -2.2479 4.377399) (end -2.2479 4.072599) (layer F.Fab) (width .1524))
  (fp_line (start -2.2479 4.072599) (end -3.302 4.072599) (layer F.Fab) (width .1524))
  (fp_line (start -3.302 4.072599) (end -3.302 4.377399) (layer F.Fab) (width .1524))
  (fp_line (start -3.302 4.377399) (end -2.2479 4.377399) (layer F.Fab) (width .1524))
  (fp_line (start 2.2479 4.0726) (end 2.2479 4.3774) (layer F.Fab) (width .1524))
  (fp_line (start 2.2479 4.3774) (end 3.302 4.3774) (layer F.Fab) (width .1524))
  (fp_line (start 3.302 4.3774) (end 3.302 4.0726) (layer F.Fab) (width .1524))
  (fp_line (start 3.302 4.0726) (end 2.2479 4.0726) (layer F.Fab) (width .1524))
  (fp_line (start 2.2479 3.4226) (end 2.2479 3.7274) (layer F.Fab) (width .1524))
  (fp_line (start 2.2479 3.7274) (end 3.302 3.7274) (layer F.Fab) (width .1524))
  (fp_line (start 3.302 3.7274) (end 3.302 3.4226) (layer F.Fab) (width .1524))
  (fp_line (start 3.302 3.4226) (end 2.2479 3.4226) (layer F.Fab) (width .1524))
  (fp_line (start 2.2479 2.7726) (end 2.2479 3.0774) (layer F.Fab) (width .1524))
  (fp_line (start 2.2479 3.0774) (end 3.302 3.0774) (layer F.Fab) (width .1524))
  (fp_line (start 3.302 3.0774) (end 3.302 2.7726) (layer F.Fab) (width .1524))
  (fp_line (start 3.302 2.7726) (end 2.2479 2.7726) (layer F.Fab) (width .1524))
  (fp_line (start 2.2479 2.1226) (end 2.2479 2.4274) (layer F.Fab) (width .1524))
  (fp_line (start 2.2479 2.4274) (end 3.302 2.4274) (layer F.Fab) (width .1524))
  (fp_line (start 3.302 2.4274) (end 3.302 2.1226) (layer F.Fab) (width .1524))
  (fp_line (start 3.302 2.1226) (end 2.2479 2.1226) (layer F.Fab) (width .1524))
  (fp_line (start 2.2479 1.4726) (end 2.2479 1.7774) (layer F.Fab) (width .1524))
  (fp_line (start 2.2479 1.7774) (end 3.302 1.7774) (layer F.Fab) (width .1524))
  (fp_line (start 3.302 1.7774) (end 3.302 1.4726) (layer F.Fab) (width .1524))
  (fp_line (start 3.302 1.4726) (end 2.2479 1.4726) (layer F.Fab) (width .1524))
  (fp_line (start 2.2479 .8226) (end 2.2479 1.1274) (layer F.Fab) (width .1524))
  (fp_line (start 2.2479 1.1274) (end 3.302 1.1274) (layer F.Fab) (width .1524))
  (fp_line (start 3.302 1.1274) (end 3.302 .8226) (layer F.Fab) (width .1524))
  (fp_line (start 3.302 .8226) (end 2.2479 .8226) (layer F.Fab) (width .1524))
  (fp_line (start 2.2479 .172601) (end 2.2479 .477401) (layer F.Fab) (width .1524))
  (fp_line (start 2.2479 .477401) (end 3.302 .477401) (layer F.Fab) (width .1524))
  (fp_line (start 3.302 .477401) (end 3.302 .172601) (layer F.Fab) (width .1524))
  (fp_line (start 3.302 .172601) (end 2.2479 .172601) (layer F.Fab) (width .1524))
  (fp_line (start 2.2479 -.477399) (end 2.2479 -.172599) (layer F.Fab) (width .1524))
  (fp_line (start 2.2479 -.172599) (end 3.302 -.172599) (layer F.Fab) (width .1524))
  (fp_line (start 3.302 -.172599) (end 3.302 -.477399) (layer F.Fab) (width .1524))
  (fp_line (start 3.302 -.477399) (end 2.2479 -.477399) (layer F.Fab) (width .1524))
  (fp_line (start 2.2479 -1.127399) (end 2.2479 -.822599) (layer F.Fab) (width .1524))
  (fp_line (start 2.2479 -.822599) (end 3.302 -.822599) (layer F.Fab) (width .1524))
  (fp_line (start 3.302 -.822599) (end 3.302 -1.127399) (layer F.Fab) (width .1524))
  (fp_line (start 3.302 -1.127399) (end 2.2479 -1.127399) (layer F.Fab) (width .1524))
  (fp_line (start 2.2479 -1.777399) (end 2.2479 -1.472599) (layer F.Fab) (width .1524))
  (fp_line (start 2.2479 -1.472599) (end 3.302 -1.472599) (layer F.Fab) (width .1524))
  (fp_line (start 3.302 -1.472599) (end 3.302 -1.777399) (layer F.Fab) (width .1524))
  (fp_line (start 3.302 -1.777399) (end 2.2479 -1.777399) (layer F.Fab) (width .1524))
  (fp_line (start 2.2479 -2.427399) (end 2.2479 -2.122599) (layer F.Fab) (width .1524))
  (fp_line (start 2.2479 -2.122599) (end 3.302 -2.122599) (layer F.Fab) (width .1524))
  (fp_line (start 3.302 -2.122599) (end 3.302 -2.427399) (layer F.Fab) (width .1524))
  (fp_line (start 3.302 -2.427399) (end 2.2479 -2.427399) (layer F.Fab) (width .1524))
  (fp_line (start 2.2479 -3.077399) (end 2.2479 -2.772599) (layer F.Fab) (width .1524))
  (fp_line (start 2.2479 -2.772599) (end 3.302 -2.772599) (layer F.Fab) (width .1524))
  (fp_line (start 3.302 -2.772599) (end 3.302 -3.077399) (layer F.Fab) (width .1524))
  (fp_line (start 3.302 -3.077399) (end 2.2479 -3.077399) (layer F.Fab) (width .1524))
  (fp_line (start 2.2479 -3.727399) (end 2.2479 -3.422599) (layer F.Fab) (width .1524))
  (fp_line (start 2.2479 -3.422599) (end 3.302 -3.422599) (layer F.Fab) (width .1524))
  (fp_line (start 3.302 -3.422599) (end 3.302 -3.727399) (layer F.Fab) (width .1524))
  (fp_line (start 3.302 -3.727399) (end 2.2479 -3.727399) (layer F.Fab) (width .1524))
  (fp_line (start 2.2479 -4.377399) (end 2.2479 -4.072599) (layer F.Fab) (width .1524))
  (fp_line (start 2.2479 -4.072599) (end 3.302 -4.072599) (layer F.Fab) (width .1524))
  (fp_line (start 3.302 -4.072599) (end 3.302 -4.377399) (layer F.Fab) (width .1524))
  (fp_line (start 3.302 -4.377399) (end 2.2479 -4.377399) (layer F.Fab) (width .1524))
  (fp_line (start -2.3749 5.0292) (end 2.3749 5.0292) (layer F.SilkS) (width .1524))
  (fp_line (start 2.3749 5.0292) (end 2.3749 4.73554) (layer F.SilkS) (width .1524))
  (fp_line (start 2.3749 -5.0292) (end -2.3749 -5.0292) (layer F.SilkS) (width .1524))
  (fp_line (start -2.3749 -5.0292) (end -2.3749 -4.73554) (layer F.SilkS) (width .1524))
  (fp_line (start -2.2479 4.9022) (end 2.2479 4.9022) (layer F.Fab) (width .1524))
  (fp_line (start 2.2479 4.9022) (end 2.2479 -4.9022) (layer F.Fab) (width .1524))
  (fp_line (start 2.2479 -4.9022) (end -2.2479 -4.9022) (layer F.Fab) (width .1524))
  (fp_line (start -2.2479 -4.9022) (end -2.2479 4.9022) (layer F.Fab) (width .1524))
  (fp_line (start -2.3749 4.735538) (end -2.3749 5.0292) (layer F.SilkS) (width .1524))
  (fp_line (start 2.3749 -4.73554) (end 2.3749 -5.0292) (layer F.SilkS) (width .1524))
  (fp_line (start -4.1656 1.434498) (end -4.1656 1.815498) (layer F.SilkS) (width .1524))
  (fp_line (start -4.1656 1.815498) (end -3.9116 1.815498) (layer F.SilkS) (width .1524))
  (fp_line (start -3.9116 1.815498) (end -3.9116 1.434498) (layer F.SilkS) (width .1524))
  (fp_line (start -3.9116 1.434498) (end -4.1656 1.434498) (layer F.SilkS) (width .1524))
  (fp_line (start 4.1656 .784499) (end 4.1656 1.165499) (layer F.SilkS) (width .1524))
  (fp_line (start 4.1656 1.165499) (end 3.9116 1.165499) (layer F.SilkS) (width .1524))
  (fp_line (start 3.9116 1.165499) (end 3.9116 .784499) (layer F.SilkS) (width .1524))
  (fp_line (start 3.9116 .784499) (end 4.1656 .784499) (layer F.SilkS) (width .1524))
  (fp_line (start -3.9116 4.6008) (end -3.9116 -4.6008) (layer F.CrtYd) (width .1524))
  (fp_line (start -3.9116 -4.6008) (end -2.5019 -4.6008) (layer F.CrtYd) (width .1524))
  (fp_line (start -2.5019 -4.6008) (end -2.5019 -5.1562) (layer F.CrtYd) (width .1524))
  (fp_line (start -2.5019 -5.1562) (end 2.5019 -5.1562) (layer F.CrtYd) (width .1524))
  (fp_line (start 2.5019 -5.1562) (end 2.5019 -4.6008) (layer F.CrtYd) (width .1524))
  (fp_line (start 2.5019 -4.6008) (end 3.9116 -4.6008) (layer F.CrtYd) (width .1524))
  (fp_line (start 3.9116 -4.6008) (end 3.9116 4.6008) (layer F.CrtYd) (width .1524))
  (fp_line (start 3.9116 4.6008) (end 2.5019 4.6008) (layer F.CrtYd) (width .1524))
  (fp_line (start 2.5019 4.6008) (end 2.5019 5.1562) (layer F.CrtYd) (width .1524))
  (fp_line (start 2.5019 5.1562) (end -2.5019 5.1562) (layer F.CrtYd) (width .1524))
  (fp_line (start -2.5019 5.1562) (end -2.5019 4.6008) (layer F.CrtYd) (width .1524))
  (fp_line (start -2.5019 4.6008) (end -3.9116 4.6008) (layer F.CrtYd) (width .1524))
  (fp_arc (start 0 -4.9022) (end .3048 -4.9022) (angle 180)(layer F.Fab) (width .1524))
  (pad 1 smd rect (at -2.8194 -4.225) (size 1.6764 .3556) (layers F.Cu F.Paste F.Mask))
  (pad 2 smd rect (at -2.8194 -3.574999) (size 1.6764 .3556) (layers F.Cu F.Paste F.Mask))
  (pad 3 smd rect (at -2.8194 -2.925) (size 1.6764 .3556) (layers F.Cu F.Paste F.Mask))
  (pad 4 smd rect (at -2.8194 -2.274999) (size 1.6764 .3556) (layers F.Cu F.Paste F.Mask))
  (pad 5 smd rect (at -2.8194 -1.625001) (size 1.6764 .3556) (layers F.Cu F.Paste F.Mask))
  (pad 6 smd rect (at -2.8194 -.974999) (size 1.6764 .3556) (layers F.Cu F.Paste F.Mask))
  (pad 7 smd rect (at -2.8194 -.325001) (size 1.6764 .3556) (layers F.Cu F.Paste F.Mask))
  (pad 8 smd rect (at -2.8194 .324998) (size 1.6764 .3556) (layers F.Cu F.Paste F.Mask))
  (pad 9 smd rect (at -2.8194 .974999) (size 1.6764 .3556) (layers F.Cu F.Paste F.Mask))
  (pad 10 smd rect (at -2.8194 1.624998) (size 1.6764 .3556) (layers F.Cu F.Paste F.Mask))
  (pad 11 smd rect (at -2.8194 2.274999) (size 1.6764 .3556) (layers F.Cu F.Paste F.Mask))
  (pad 12 smd rect (at -2.8194 2.924998) (size 1.6764 .3556) (layers F.Cu F.Paste F.Mask))
  (pad 13 smd rect (at -2.8194 3.574999) (size 1.6764 .3556) (layers F.Cu F.Paste F.Mask))
  (pad 14 smd rect (at -2.8194 4.224998) (size 1.6764 .3556) (layers F.Cu F.Paste F.Mask))
  (pad 15 smd rect (at 2.8194 4.225) (size 1.6764 .3556) (layers F.Cu F.Paste F.Mask))
  (pad 16 smd rect (at 2.8194 3.574999) (size 1.6764 .3556) (layers F.Cu F.Paste F.Mask))
  (pad 17 smd rect (at 2.8194 2.925) (size 1.6764 .3556) (layers F.Cu F.Paste F.Mask))
  (pad 18 smd rect (at 2.8194 2.274999) (size 1.6764 .3556) (layers F.Cu F.Paste F.Mask))
  (pad 19 smd rect (at 2.8194 1.625001) (size 1.6764 .3556) (layers F.Cu F.Paste F.Mask))
  (pad 20 smd rect (at 2.8194 .974999) (size 1.6764 .3556) (layers F.Cu F.Paste F.Mask))
  (pad 21 smd rect (at 2.8194 .325001) (size 1.6764 .3556) (layers F.Cu F.Paste F.Mask))
  (pad 22 smd rect (at 2.8194 -.325001) (size 1.6764 .3556) (layers F.Cu F.Paste F.Mask))
  (pad 23 smd rect (at 2.8194 -.974999) (size 1.6764 .3556) (layers F.Cu F.Paste F.Mask))
  (pad 24 smd rect (at 2.8194 -1.625001) (size 1.6764 .3556) (layers F.Cu F.Paste F.Mask))
  (pad 25 smd rect (at 2.8194 -2.274999) (size 1.6764 .3556) (layers F.Cu F.Paste F.Mask))
  (pad 26 smd rect (at 2.8194 -2.925) (size 1.6764 .3556) (layers F.Cu F.Paste F.Mask))
  (pad 27 smd rect (at 2.8194 -3.574999) (size 1.6764 .3556) (layers F.Cu F.Paste F.Mask))
  (pad 28 smd rect (at 2.8194 -4.225) (size 1.6764 .3556) (layers F.Cu F.Paste F.Mask))
)
